<?xml version="1.0" encoding="utf-8"?>
<!-- Generator: Adobe Illustrator 18.0.0, SVG Export Plug-In . SVG Version: 6.00 Build 0)  -->
<!DOCTYPE svg PUBLIC "-//W3C//DTD SVG 1.1//EN" "http://www.w3.org/Graphics/SVG/1.1/DTD/svg11.dtd">
<svg version="1.1" id="Layer_1" xmlns="http://www.w3.org/2000/svg" xmlns:xlink="http://www.w3.org/1999/xlink" x="0px" y="0px"
	 viewBox="0 0 48 48" enable-background="new 0 0 48 48" xml:space="preserve">
<g>
	<path fill="none" d="M2.5,20.8c0.1,2.3,0.6,4.6,1.4,6.6h15.5c0-0.2,0.1-0.4,0.3-0.6l6.6-6.1H2.5z"/>
	<path fill="none" d="M21.8,27.4h22.3c0.8-2.1,1.3-4.3,1.4-6.6H29L21.8,27.4z"/>
	<path fill="#F04B36" d="M44.5,6.4C44.9,6,45,5.4,44.6,5c-0.4-0.4-1-0.4-1.4-0.1l-15,13.9h2.9L44.5,6.4z"/>
	<path fill="#F04B36" d="M26.1,20.8l-6.6,6.1c-0.2,0.2-0.3,0.4-0.3,0.6h2.5l7.2-6.6H26.1z"/>
	<path fill="#CFD0D1" d="M46.5,18.8H31.1h-2.9H1.5c-0.5,0-1,0.4-1,1c0,3.2,0.6,6.2,1.8,8.9c0,0,0,0,0,0.1
		C5.8,37.3,14.2,43.3,24,43.3c9.8,0,18.2-6,21.7-14.5c0,0,0,0,0-0.1c1.1-2.8,1.8-5.8,1.8-8.9C47.5,19.3,47.1,18.8,46.5,18.8z
		 M44.2,27.4H21.8h-2.5H3.8c-0.8-2.1-1.3-4.3-1.4-6.6h23.7H29h16.6C45.4,23.1,44.9,25.3,44.2,27.4z"/>
</g>
</svg>
