<?xml version="1.0" encoding="utf-8"?>
<!-- Generator: Adobe Illustrator 18.0.0, SVG Export Plug-In . SVG Version: 6.00 Build 0)  -->
<!DOCTYPE svg PUBLIC "-//W3C//DTD SVG 1.1//EN" "http://www.w3.org/Graphics/SVG/1.1/DTD/svg11.dtd">
<svg version="1.1" id="Layer_1" xmlns="http://www.w3.org/2000/svg" xmlns:xlink="http://www.w3.org/1999/xlink" x="0px" y="0px"
	 viewBox="0 0 48 48" enable-background="new 0 0 48 48" xml:space="preserve">
<g>
	<path fill="#F7A93B" d="M14.1,15.5L4.1,25.6c-4.7,4.7-4.7,12.5,0,17.2l1.1,1.1c4.7,4.7,12.5,4.7,17.2,0l10.1-10.1L14.1,15.5z"/>
	<path fill="#4DA0D8" d="M43.9,5.2l-1.1-1.1c-4.7-4.7-12.5-4.7-17.2,0l-10.1,10l18.4,18.4l10.1-10.1C48.7,17.7,48.7,9.9,43.9,5.2z"
		/>
</g>
</svg>
