<?xml version="1.0" encoding="utf-8"?>
<!-- Generator: Adobe Illustrator 18.0.0, SVG Export Plug-In . SVG Version: 6.00 Build 0)  -->
<!DOCTYPE svg PUBLIC "-//W3C//DTD SVG 1.1//EN" "http://www.w3.org/Graphics/SVG/1.1/DTD/svg11.dtd">
<svg version="1.1" id="Layer_1" xmlns="http://www.w3.org/2000/svg" xmlns:xlink="http://www.w3.org/1999/xlink" x="0px" y="0px"
	 viewBox="0 0 48 48" enable-background="new 0 0 48 48" xml:space="preserve">
<g>
	<path fill="#4DA0D8" d="M46.2,4.1c-0.1-1.1-1-2-2.1-2.1L31.5,0.5c-1.3-0.1-2.4,0.8-2.6,2.1c-0.1,1.3,0.8,2.4,2.1,2.6l7.8,0.9
		L28.7,16.2c-3-2.3-6.7-3.6-10.6-3.6c-4.7,0-9,1.8-12.3,5.1c-6.8,6.8-6.8,17.9,0,24.7c3.3,3.3,7.7,5.1,12.3,5.1
		c4.7,0,9-1.8,12.3-5.1c3.3-3.3,5.1-7.7,5.1-12.3c0-3.9-1.3-7.5-3.6-10.6l10-10l0.7,7.4c0.1,1.2,1.1,2.1,2.3,2.1c0.1,0,0.1,0,0.2,0
		c1.3-0.1,2.2-1.3,2.1-2.5L46.2,4.1z M17.9,43C10.7,43,4.9,37.2,4.9,30c0-7.1,5.8-12.9,12.9-12.9S30.8,22.9,30.8,30
		C30.8,37.2,25,43,17.9,43z"/>
</g>
</svg>
