<?xml version="1.0" encoding="utf-8"?>
<!-- Generator: Adobe Illustrator 18.0.0, SVG Export Plug-In . SVG Version: 6.00 Build 0)  -->
<!DOCTYPE svg PUBLIC "-//W3C//DTD SVG 1.1//EN" "http://www.w3.org/Graphics/SVG/1.1/DTD/svg11.dtd">
<svg version="1.1" id="Layer_1" xmlns="http://www.w3.org/2000/svg" xmlns:xlink="http://www.w3.org/1999/xlink" x="0px" y="0px"
	 viewBox="0 0 48 48" enable-background="new 0 0 48 48" xml:space="preserve">
<g>
	<path fill="#E77528" d="M47.4,16.1c-0.2-0.8-1-1.2-1.8-1l-18.3,5.4l5.4-18.3c0.2-0.8-0.2-1.5-1-1.8c-0.8-0.2-1.5,0.2-1.8,1l-6,20.1
		L12.5,25c0.5-2,0-4.3-1.6-5.9c-1.2-1.2-2.7-1.8-4.3-1.8c-1.6,0-3.2,0.6-4.3,1.8c-1.2,1.2-1.8,2.7-1.8,4.3c0,1.6,0.6,3.2,1.8,4.3
		C3.4,29,5,29.6,6.6,29.6c1,0,1.9-0.2,2.8-0.7l13.8-4.1l-4.1,13.8c-0.4,0.9-0.7,1.8-0.7,2.8c0,1.6,0.6,3.2,1.8,4.3
		c1.2,1.2,2.7,1.8,4.3,1.8c1.6,0,3.2-0.6,4.3-1.8c2.4-2.4,2.4-6.3,0-8.6c-1.2-1.2-2.7-1.8-4.3-1.8c-0.5,0-1,0.1-1.5,0.2l3.5-11.6
		l20.1-6C47.2,17.7,47.7,16.9,47.4,16.1z M4.3,25.8c-0.6-0.6-1-1.4-1-2.3c0-0.9,0.3-1.7,1-2.3c0.6-0.6,1.4-1,2.3-1
		c0.9,0,1.7,0.3,2.3,1c1.3,1.3,1.3,3.3,0,4.6c-0.2,0.2-0.5,0.4-0.7,0.5l-0.5,0.2c-0.1,0-0.3,0.1-0.4,0.2C6.3,26.9,5.1,26.6,4.3,25.8
		z M22.2,39.1c0.6-0.6,1.4-1,2.3-1c0.9,0,1.7,0.3,2.3,1c1.3,1.3,1.3,3.3,0,4.6c-1.2,1.2-3.4,1.2-4.6,0c-0.6-0.6-1-1.4-1-2.3
		c0-0.2,0-0.4,0.1-0.6c0.1-0.1,0.2-0.3,0.2-0.4l0.2-0.6C21.8,39.5,22,39.3,22.2,39.1z"/>
</g>
</svg>
