<?xml version="1.0" encoding="utf-8"?>
<!-- Generator: Adobe Illustrator 16.0.0, SVG Export Plug-In . SVG Version: 6.00 Build 0)  -->
<!DOCTYPE svg PUBLIC "-//W3C//DTD SVG 1.1//EN" "http://www.w3.org/Graphics/SVG/1.1/DTD/svg11.dtd">
<svg version="1.1" id="Layer_1" xmlns="http://www.w3.org/2000/svg" xmlns:xlink="http://www.w3.org/1999/xlink" x="0px" y="0px"
	 width="48px" height="48px" viewBox="0 0 48 48" enable-background="new 0 0 48 48" xml:space="preserve">
<g>
	<path fill="#274D57" d="M5.076,47.041C5.819,47.327,6.485,47.647,7.097,48c0.049-0.676-0.013-1.313-0.362-1.834
		c-0.775-1.159-2.109-1.462-3.285-1.73c-0.455-0.104-0.918-0.21-1.283-0.356c0.338-0.451,0.758-0.825,1.225-1.088
		c0.214-0.118,0.527-0.242,0.859-0.373c0.962-0.382,2.055-0.812,2.527-1.771c0.224-0.457,0.035-1.008-0.422-1.232
		s-1.01-0.036-1.233,0.419c-0.157,0.321-0.996,0.652-1.55,0.872c-0.393,0.154-0.764,0.301-1.085,0.48
		c-1.004,0.563-1.853,1.468-2.392,2.546c-0.168,0.337-0.113,0.742,0.138,1.023c0.714,0.8,1.775,1.043,2.806,1.275
		C3.872,46.422,4.659,46.604,5.076,47.041z"/>
	<path fill="#00718D" d="M46.653,13L46.653,13c0.04-0.063,0.082-0.123,0.122-0.186c2.354-3.762,1.213-8.712-2.545-11.057
		c-3.759-2.346-8.714-1.198-11.065,2.563c-2.353,3.761-1.215,8.712,2.545,11.057c1.124,0.701,2.354,1.088,3.59,1.188
		c-0.149,1.013-0.617,3.493-1.783,4.915c0,0-13.122,11.72-14.392,12.013c0,0-2.662,1.069-3.869,0.985
		c-0.032-0.959-0.247-1.921-0.672-2.839c-1.784-3.866-6.546-5.475-10.636-3.591C3.86,29.934,1.995,34.595,3.78,38.461
		c1.711,3.703,6.149,5.332,10.113,3.809v0.001c0,0,7.128-2.544,15.674-10.467c1.361-1.263,11.222-9.982,12.537-12.436
		C42.104,19.368,45.479,15.775,46.653,13z"/>
	<path fill="#00A5D3" d="M18.583,31.641c0.425,0.918,0.64,1.88,0.672,2.839c1.207,0.084,3.869-0.985,3.869-0.985
		c1.271-0.293,14.392-12.013,14.392-12.013c1.166-1.422,1.634-3.902,1.783-4.915c-1.236-0.101-2.466-0.487-3.59-1.188
		c-0.334-0.208-0.646-0.437-0.936-0.684c-0.309,1.526-0.924,3.066-1.953,4.222c0,0-7.373,7.776-10.925,9.323
		c-2.673,1.162-3.924,1.567-5.054,1.035C17.559,29.923,18.157,30.717,18.583,31.641z"/>
	<path fill="#00A5D3" d="M15.713,28.43L15.713,28.43c-0.17-0.166-0.295-0.233-0.383-0.22C15.459,28.279,15.587,28.354,15.713,28.43z
		"/>
	<path fill="#008AAC" d="M17.727,29.953c-1.48-3.203-5.746-4.387-9.527-2.645c-3.783,1.743-5.649,5.751-4.17,8.955
		c1.479,3.202,5.745,4.386,9.527,2.644C17.338,37.165,19.206,33.155,17.727,29.953z"/>
	<path fill="#00A5D3" d="M17.545,31.381c-0.006,2.394-1.629,4.833-4.283,6.056c-3.465,1.597-7.373,0.511-8.729-2.423
		c-0.24-0.521-0.383-1.065-0.437-1.618c-0.001,0.732,0.146,1.461,0.462,2.148c1.357,2.935,5.266,4.021,8.729,2.423
		C16.137,36.654,17.799,33.938,17.545,31.381z"/>
	<path fill="#008AAC" d="M44.123,10.92c-2.294,3.668-6.622,5.099-9.667,3.199c-3.046-1.9-3.656-6.413-1.362-10.08
		s6.622-5.1,9.669-3.198C45.806,2.741,46.417,7.254,44.123,10.92z"/>
	<path fill="#00A5D3" d="M45.031,6.452c-0.143,1.143-0.544,2.312-1.226,3.398c-2.119,3.39-6.122,4.714-8.938,2.957
		c-1.8-1.121-2.676-3.229-2.525-5.49c-0.301,2.42,0.572,4.729,2.484,5.923c2.816,1.757,6.818,0.433,8.939-2.958
		C44.532,9.058,44.946,7.73,45.031,6.452z"/>
	<circle fill="#00A5D3" cx="40.18" cy="4.967" r="0.457"/>
	<circle fill="#00A5D3" cx="37.466" cy="9.305" r="0.456"/>
	<circle fill="#00A5D3" cx="40.996" cy="8.492" r="0.456"/>
	<circle fill="#00A5D3" cx="38.823" cy="7.137" r="0.456"/>
	<circle fill="#00A5D3" cx="36.651" cy="5.781" r="0.456"/>
	<circle fill="#00A5D3" cx="39.399" cy="9.628" r="0.457"/>
	<circle fill="#00A5D3" cx="38.246" cy="4.645" r="0.458"/>
	<circle fill="#00A5D3" cx="36.328" cy="7.711" r="0.456"/>
	<circle fill="#00A5D3" cx="41.318" cy="6.561" r="0.456"/>
	<circle fill="#00A5D3" cx="11.921" cy="30.442" r="0.457"/>
	<circle fill="#00A5D3" cx="9.208" cy="34.78" r="0.457"/>
	<circle fill="#00A5D3" cx="12.737" cy="33.966" r="0.457"/>
	<circle fill="#00A5D3" cx="10.565" cy="32.611" r="0.457"/>
	<circle fill="#00A5D3" cx="8.393" cy="31.255" r="0.456"/>
	<circle fill="#00A5D3" cx="11.141" cy="35.103" r="0.457"/>
	<circle fill="#00A5D3" cx="9.988" cy="30.119" r="0.457"/>
	<circle fill="#00A5D3" cx="8.069" cy="33.186" r="0.456"/>
	<circle fill="#00A5D3" cx="13.061" cy="32.035" r="0.456"/>
</g>
</svg>
