<?xml version="1.0" encoding="utf-8"?>
<!-- Generator: Adobe Illustrator 18.0.0, SVG Export Plug-In . SVG Version: 6.00 Build 0)  -->
<!DOCTYPE svg PUBLIC "-//W3C//DTD SVG 1.1//EN" "http://www.w3.org/Graphics/SVG/1.1/DTD/svg11.dtd">
<svg version="1.1" id="Layer_1" xmlns="http://www.w3.org/2000/svg" xmlns:xlink="http://www.w3.org/1999/xlink" x="0px" y="0px"
	 viewBox="0 0 48 48" enable-background="new 0 0 48 48" xml:space="preserve">
<g>
	<path fill="#E77528" d="M33.5,11.9L13.3,6.4c-0.5-0.1-1.1,0.2-1.2,0.7c-0.1,0.5,0.2,1.1,0.7,1.2L33,13.8c0.1,0,0.2,0,0.3,0
		c0.4,0,0.8-0.3,1-0.7C34.4,12.6,34,12.1,33.5,11.9z"/>
	<path fill="#E77528" d="M31.8,16.7l-20.2-5.5c-0.5-0.1-1.1,0.2-1.2,0.7c-0.1,0.5,0.2,1.1,0.7,1.2l20.2,5.5c0.1,0,0.2,0,0.3,0
		c0.4,0,0.8-0.3,1-0.7C32.6,17.4,32.3,16.9,31.8,16.7z"/>
	<path fill="#E77528" d="M10.7,2.8l26.8,7.3l-3,9.8l2.1,0l3.1-10.3c0.1-0.3,0-0.5-0.1-0.8c-0.1-0.2-0.3-0.4-0.6-0.5L10.2,0.7
		C9.7,0.5,9.2,0.8,9,1.3L4.3,16.8c0,0,0,0,0,0h2.1L10.7,2.8z"/>
	<path fill="#4DA0D8" d="M40.7,20h-4.1l-2.1,0c0,0,0,0,0,0H20.8l-4.6-3.1c0,0-0.1,0-0.1,0H6.4H4.3H0.7c-0.1,0-0.2,0.1-0.2,0.2V41
		c0,0.1,0.1,0.2,0.2,0.2h26.4c-0.2-0.8-0.3-1.6-0.3-2.5c0-6,5.1-10.8,11.3-10.8c1,0,1.9,0.1,2.9,0.4v-8C41,20.1,40.9,20,40.7,20z"/>
	<path fill="#06728D" d="M38.5,30.4c-5,0-9,3.8-9,8.5c0,4.7,4,8.5,9,8.5c5,0,9-3.8,9-8.5C47.5,34.2,43.5,30.4,38.5,30.4z M44.3,36.5
		l-6.5,6.3c-0.2,0.2-0.5,0.3-0.7,0.3c-0.2,0-0.5-0.1-0.7-0.3l-3.6-3.2c-0.4-0.4-0.5-1-0.1-1.4c0.4-0.4,1-0.4,1.4-0.1l2.9,2.5
		l5.8-5.6c0.4-0.4,1-0.4,1.4,0C44.7,35.4,44.7,36.1,44.3,36.5z"/>
</g>
</svg>
