<?xml version="1.0" encoding="utf-8"?>
<!-- Generator: Adobe Illustrator 18.0.0, SVG Export Plug-In . SVG Version: 6.00 Build 0)  -->
<!DOCTYPE svg PUBLIC "-//W3C//DTD SVG 1.1//EN" "http://www.w3.org/Graphics/SVG/1.1/DTD/svg11.dtd">
<svg version="1.1" id="Layer_1" xmlns="http://www.w3.org/2000/svg" xmlns:xlink="http://www.w3.org/1999/xlink" x="0px" y="0px"
	 viewBox="0 0 48 48" enable-background="new 0 0 48 48" xml:space="preserve">
<g>
	<path fill="#E77528" d="M47.1,39.9H0.7c-0.1,0-0.2,0.1-0.2,0.2v7.1c0,0.1,0.1,0.2,0.2,0.2h46.3c0.1,0,0.2-0.1,0.2-0.2v-7.1
		C47.3,40,47.2,39.9,47.1,39.9z"/>
	<path fill="#06728D" d="M0.7,36.5h9.8c0.1,0,0.2-0.1,0.2-0.2V1.6c0-0.1-0.1-0.2-0.2-0.2H0.7c-0.1,0-0.2,0.1-0.2,0.2v34.6
		C0.5,36.4,0.6,36.5,0.7,36.5z"/>
	<path fill="#0DB89A" d="M28.8,36.5c0.1,0,0.2-0.1,0.2-0.2V15.5c0-0.1-0.1-0.2-0.2-0.2H19c-0.1,0-0.2,0.1-0.2,0.2v20.8
		c0,0.1,0.1,0.2,0.2,0.2H28.8z"/>
	<path fill="#4DA0D8" d="M47.1,22.8h-9.8c-0.1,0-0.2,0.1-0.2,0.2v13.2c0,0.1,0.1,0.2,0.2,0.2h9.8c0.1,0,0.2-0.1,0.2-0.2V23.1
		C47.3,22.9,47.2,22.8,47.1,22.8z"/>
	<path fill="#F7A93B" d="M47.4,16.5l-2.7-6.1c-0.3-0.7-1.2-1.1-1.9-0.8C42,10,41.7,10.9,42,11.6l1.2,2.8L17.6,0.7
		c-0.7-0.4-1.6-0.1-2,0.6c-0.4,0.7-0.1,1.6,0.6,2L41.8,17l-2.9,1c-0.8,0.3-1.2,1.1-0.9,1.8c0.2,0.6,0.8,1,1.4,1c0.2,0,0.3,0,0.5-0.1
		l6.6-2.2c0.4-0.1,0.7-0.4,0.9-0.8C47.5,17.3,47.5,16.9,47.4,16.5z"/>
</g>
</svg>
