<?xml version="1.0" encoding="utf-8"?>
<!-- Generator: Adobe Illustrator 18.0.0, SVG Export Plug-In . SVG Version: 6.00 Build 0)  -->
<!DOCTYPE svg PUBLIC "-//W3C//DTD SVG 1.1//EN" "http://www.w3.org/Graphics/SVG/1.1/DTD/svg11.dtd">
<svg version="1.1" id="Layer_1" xmlns="http://www.w3.org/2000/svg" xmlns:xlink="http://www.w3.org/1999/xlink" x="0px" y="0px"
	 viewBox="0 0 48 48" enable-background="new 0 0 48 48" xml:space="preserve">
<g>
	<path fill="#F7A93B" d="M24,0.5c-3,0-5.4,2.4-5.4,5.4c0,3,2.4,5.4,5.4,5.4c3,0,5.4-2.4,5.4-5.4C29.4,2.9,27,0.5,24,0.5z"/>
	<path fill="#06728D" d="M24,13c-7,0-12.7,6.6-12.7,14.8c0,0.1,0.1,0.2,0.2,0.2h24.9c0.1,0,0.2-0.1,0.2-0.2C36.7,19.6,31,13,24,13z"
		/>
	<path fill="#F7A93B" d="M47.3,34.1c-2.6-1-8.8-3.2-10.8-3.2c0,0,0,0,0,0c-0.7,0-2.3,0-4.7,0c-4,0-8.8,0-8.8,0h0c0,0,0,0,0,0l-0.3,0
		c-2.7,0-6.1,0.1-10.1,0.4c-0.8,0.1-1.5,0.4-2,1c-0.5,0.6-0.7,1.3-0.6,2c0.1,1.5,1.6,2.7,3.1,2.6c3.2-0.2,6.8-0.4,9.5-0.4
		c2.7,1.1,4.5,2.3,5,3.1c-0.4,0.3-1.2,0.9-2.2,1.4c-5.6,1.5-10.1,1.2-13.4-0.7c-4.8-2.9-5.7-8.6-5.8-8.8c-0.2-1.5-1.7-2.6-3.3-2.4
		c-0.8,0.1-1.5,0.5-2,1.1c-0.5,0.6-0.6,1.3-0.5,2c0,0.3,1.2,8.5,8.4,12.8c2.8,1.7,6.1,2.5,9.9,2.5c3.1,0,6.5-0.6,10.1-1.7
		c3.6-0.7,11.5-2.1,16-2.1c0.7,0,1.2,0,1.7,0.1c0.2,0,0.5,0,0.7,0c0.1,0,0.2-0.1,0.2-0.2v-9.3C47.5,34.2,47.4,34.1,47.3,34.1z"/>
</g>
</svg>
