<?xml version="1.0" encoding="utf-8"?>
<!-- Generator: Adobe Illustrator 18.0.0, SVG Export Plug-In . SVG Version: 6.00 Build 0)  -->
<!DOCTYPE svg PUBLIC "-//W3C//DTD SVG 1.1//EN" "http://www.w3.org/Graphics/SVG/1.1/DTD/svg11.dtd">
<svg version="1.1" id="Layer_1" xmlns="http://www.w3.org/2000/svg" xmlns:xlink="http://www.w3.org/1999/xlink" x="0px" y="0px"
	 viewBox="0 0 48 48" enable-background="new 0 0 48 48" xml:space="preserve">
<g>
	<path fill="#AA6527" d="M43.2,43.5h-2.3c-0.5,0-1-0.4-1-1c0-0.5,0.4-1,1-1h1.7c0-0.1,0.1-0.1,0.1-0.2c0.1-0.4,0.5-0.7,1-0.6
		c1.4,0.1,1.6-1.8,1.6-1.8c0-0.1,0-0.1,0-0.2c1.3-4.1-2.3-12.1-4-15.2l-4.2-1.3c-0.1,0-0.2-0.1-0.3-0.2c-1.1-0.8-2.3-1.5-3.5-2.1
		c-0.5-0.2-0.7-0.8-0.5-1.3c0.2-0.5,0.8-0.7,1.3-0.5c1.3,0.6,2.6,1.3,3.7,2.2l4.4,1.4c0.2,0.1,0.4,0.2,0.5,0.4
		c0.3,0.5,6.3,11.1,4.4,17c-0.2,1.2-0.9,3.2-2.9,3.4c0,0.1-0.1,0.1-0.1,0.2l0,0.1C43.9,43.3,43.6,43.5,43.2,43.5z"/>
	<path fill="#AA6527" d="M9.7,43.5H8c-0.4,0-0.7-0.2-0.9-0.6c-0.1-0.3-0.2-0.5-0.3-0.8C4,42.2,3.4,42,3.1,42
		c-1.7-0.5-2.2-1.8-2.6-4.3c-0.5-2.7,3-4.9,4.2-5.6l2.8-9.4c0.1-0.3,0.3-0.6,0.6-0.7l5.2-1.6c1.2-0.9,2.5-1.7,3.8-2.3
		c0.5-0.2,1.1,0,1.3,0.5c0.2,0.5,0,1.1-0.5,1.3c-1.3,0.6-2.5,1.3-3.6,2.2c-0.2,0.1-0.4,0.2-0.5,0.2l-4.6,1.4L6.5,33
		c-0.1,0.3-0.2,0.5-0.5,0.6c-1.3,0.7-3.8,2.5-3.6,3.8c0.4,2.5,0.8,2.6,1.2,2.8c0.1,0,0.7,0.2,3.8,0c0.4,0,0.8,0.3,1,0.7
		c0.1,0.2,0.2,0.5,0.3,0.7h1.1c0.5,0,1,0.4,1,1C10.7,43.1,10.3,43.5,9.7,43.5z"/>
	<path fill="#F7A93B" d="M25.6,1.3c-6.2,0-11.2,5-11.2,11.2c0,6.2,5,11.2,11.2,11.2c6.2,0,11.2-5,11.2-11.2
		C36.9,6.3,31.8,1.3,25.6,1.3z"/>
	<path fill="#06728D" d="M41,25.2H10.2c-0.5,0-1,0.4-1,1v19.6c0,0.5,0.4,1,1,1H41c0.5,0,1-0.4,1-1V26.2C42,25.6,41.6,25.2,41,25.2z"
		/>
</g>
</svg>
